%YAML 1.1
%TAG !u! tag:unity3d.com,2011:
--- !u!21 &2100000
Material:
  serializedVersion: 3
  m_ObjectHideFlags: 0
  m_PrefabParentObject: {fileID: 0}
  m_PrefabInternal: {fileID: 0}
  m_Name: ConnectionPart04Mat
  m_Shader: {fileID: 4800000, guid: 441c5e7206ecc45518ee78a02f436185, type: 3}
  m_ShaderKeywords: []
  m_CustomRenderQueue: -1
  m_SavedProperties:
    serializedVersion: 2
    m_TexEnvs:
      data:
        first:
          name: _MainTex
        second:
          m_Texture: {fileID: 2800000, guid: d3cef716a8e0474498adfcc1ff9899fb, type: 3}
          m_Scale: {x: 1, y: 1}
          m_Offset: {x: 0, y: 0}
      data:
        first:
          name: _BumpMap
        second:
          m_Texture: {fileID: 2800000, guid: f0ea42b870cf9ce41b5bb057c7df19b9, type: 3}
          m_Scale: {x: 1, y: 1}
          m_Offset: {x: 0, y: 0}
      data:
        first:
          name: _SpecTex
        second:
          m_Texture: {fileID: 2800000, guid: 02b5c3b2e6716aa4ca325eca4c40585a, type: 3}
          m_Scale: {x: 1, y: 1}
          m_Offset: {x: 0, y: 0}
      data:
        first:
          name: _DiffCubeIBL
        second:
          m_Texture: {fileID: 8900000, guid: d10ee26d296a28345bc39a4a3464662c, type: 2}
          m_Scale: {x: 1, y: 1}
          m_Offset: {x: 0, y: 0}
      data:
        first:
          name: _SpecCubeIBL
        second:
          m_Texture: {fileID: 8900000, guid: d10ee26d296a28345bc39a4a3464662c, type: 2}
          m_Scale: {x: 1, y: 1}
          m_Offset: {x: 0, y: 0}
      data:
        first:
          name: _EmissionMap
        second:
          m_Texture: {fileID: 0}
          m_Scale: {x: 1, y: 1}
          m_Offset: {x: 0, y: 0}
    m_Floats:
      data:
        first:
          name: _Shininess
        second: .5
      data:
        first:
          name: _EmissionStrength
        second: -1
      data:
        first:
          name: _EmissionBoost
        second: 1
      data:
        first:
          name: _Generate
        second: .559058964
      data:
        first:
          name: _GridScale
        second: 2
      data:
        first:
          name: _GridThickness
        second: .0700000003
      data:
        first:
          name: _SpaceshipRadius
        second: 0
      data:
        first:
          name: _HologramSpeedModifier
        second: 1.125
      data:
        first:
          name: _SpaceshipSize
        second: 61.6680832
    m_Colors:
      data:
        first:
          name: _Color
        second: {r: 1, g: 1, b: 1, a: 1}
      data:
        first:
          name: _GridColor
        second: {r: .448529422, g: .448529422, b: 1, a: 1}
      data:
        first:
          name: _MaterializationColor
        second: {r: 1, g: .514260113, b: .242647052, a: 1}
