%YAML 1.1
%TAG !u! tag:unity3d.com,2011:
--- !u!21 &2100000
Material:
  serializedVersion: 3
  m_ObjectHideFlags: 0
  m_PrefabParentObject: {fileID: 0}
  m_PrefabInternal: {fileID: 0}
  m_Name: Cockpit 1
  m_Shader: {fileID: 4800000, guid: 441c5e7206ecc45518ee78a02f436185, type: 3}
  m_ShaderKeywords: []
  m_CustomRenderQueue: -1
  m_SavedProperties:
    serializedVersion: 2
    m_TexEnvs:
      data:
        first:
          name: _MainTex
        second:
          m_Texture: {fileID: 2800000, guid: 61afc8a1456c79447bf4dce319e794f7, type: 3}
          m_Scale: {x: 1, y: 1}
          m_Offset: {x: 0, y: 0}
      data:
        first:
          name: _BumpMap
        second:
          m_Texture: {fileID: 2800000, guid: de1a48096fa5161478d42da2ae2352d3, type: 3}
          m_Scale: {x: 1, y: 1}
          m_Offset: {x: 0, y: 0}
      data:
        first:
          name: _Emission
        second:
          m_Texture: {fileID: 0}
          m_Scale: {x: 1, y: 1}
          m_Offset: {x: 0, y: 0}
      data:
        first:
          name: _SpecTex
        second:
          m_Texture: {fileID: 0}
          m_Scale: {x: 1, y: 1}
          m_Offset: {x: 0, y: 0}
      data:
        first:
          name: _DiffCubeIBL
        second:
          m_Texture: {fileID: 0}
          m_Scale: {x: 1, y: 1}
          m_Offset: {x: 0, y: 0}
      data:
        first:
          name: _SpecCubeIBL
        second:
          m_Texture: {fileID: 0}
          m_Scale: {x: 1, y: 1}
          m_Offset: {x: 0, y: 0}
      data:
        first:
          name: _EmissionMap
        second:
          m_Texture: {fileID: 0}
          m_Scale: {x: 1, y: 1}
          m_Offset: {x: 0, y: 0}
      data:
        first:
          name: _Reflections
        second:
          m_Texture: {fileID: 8900000, guid: d10ee26d296a28345bc39a4a3464662c, type: 2}
          m_Scale: {x: 1, y: 1}
          m_Offset: {x: 0, y: 0}
      data:
        first:
          name: _SpecularMap
        second:
          m_Texture: {fileID: 2800000, guid: 8f817781fe2e9a042bdb1f3586eb55bc, type: 3}
          m_Scale: {x: 1, y: 1}
          m_Offset: {x: 0, y: 0}
      data:
        first:
          name: _Specular
        second:
          m_Texture: {fileID: 2800000, guid: cac985969e161d04e810813bcc66bd93, type: 3}
          m_Scale: {x: 1, y: 1}
          m_Offset: {x: 0, y: 0}
      data:
        first:
          name: _SpecMap
        second:
          m_Texture: {fileID: 0}
          m_Scale: {x: 1, y: 1}
          m_Offset: {x: 0, y: 0}
      data:
        first:
          name: _RoughnessMap
        second:
          m_Texture: {fileID: 0}
          m_Scale: {x: 1, y: 1}
          m_Offset: {x: 0, y: 0}
    m_Floats:
      data:
        first:
          name: _Shininess
        second: .078125
      data:
        first:
          name: _EmissionStrength
        second: 0
      data:
        first:
          name: _EmissionBoost
        second: 1
      data:
        first:
          name: _Generate
        second: .559058964
      data:
        first:
          name: _GridScale
        second: 2
      data:
        first:
          name: _GridThickness
        second: .0700000003
      data:
        first:
          name: _SpaceshipRadius
        second: 0
      data:
        first:
          name: _HologramSpeedModifier
        second: 1.125
      data:
        first:
          name: _SpaceshipSize
        second: 61.6680832
      data:
        first:
          name: _SpecularPower
        second: 100.785713
      data:
        first:
          name: _Roughness
        second: .451964289
    m_Colors:
      data:
        first:
          name: _Color
        second: {r: 1, g: 1, b: 1, a: 1}
      data:
        first:
          name: _SpecColor
        second: {r: .5, g: .5, b: .5, a: 1}
      data:
        first:
          name: _GridColor
        second: {r: .448529422, g: .448529422, b: 1, a: 1}
      data:
        first:
          name: _MaterializationColor
        second: {r: 1, g: .514260113, b: .242647052, a: 1}
      data:
        first:
          name: _SpecularColor
        second: {r: .99999994, g: .99999994, b: .99999994, a: 0}
